{
  "npmScope": "workspace-apps",
  "implicitDependencies": {
    "angular.json": "*",
    "package.json": "*",
    "tsconfig.json": "*",
    "tslint.json": "*",
    "nx.json": "*"
  },
  "projects": {
    "sabius-apps": {
      "tags": []
    },
    "sabius-apps-e2e": {
      "tags": []
    },
    "sabius-comercial": {
      "tags": []
    },
    "sabius-comercial-e2e": {
      "tags": []
    },
    "login": {
      "tags": []
    },
    "core": {
      "tags": []
    },
    "model": {
      "tags": []
    },
    "primeng": {
      "tags": []
    },    
    "unimed-prod": {
      "tags": []
    },
    "empresa": {
      "tags": []
    },
    "util": {
      "tags": []
    },
    "diretivas": {
      "tags": []
    }
  }
}
